%!PS-Adobe-3.0 EPSF-3.0
%%Creator: cairo 1.15.10 (http://cairographics.org)
%%CreationDate: Fri Mar  6 11:40:04 2020
%%Pages: 1
%%DocumentData: Clean7Bit
%%LanguageLevel: 2
%%BoundingBox: 0 0 360 216
%%EndComments
%%BeginProlog
50 dict begin
/q { gsave } bind def
/Q { grestore } bind def
/cm { 6 array astore concat } bind def
/w { setlinewidth } bind def
/J { setlinecap } bind def
/j { setlinejoin } bind def
/M { setmiterlimit } bind def
/d { setdash } bind def
/m { moveto } bind def
/l { lineto } bind def
/c { curveto } bind def
/h { closepath } bind def
/re { exch dup neg 3 1 roll 5 3 roll moveto 0 rlineto
      0 exch rlineto 0 rlineto closepath } bind def
/S { stroke } bind def
/f { fill } bind def
/f* { eofill } bind def
/n { newpath } bind def
/W { clip } bind def
/W* { eoclip } bind def
/BT { } bind def
/ET { } bind def
/BDC { mark 3 1 roll /BDC pdfmark } bind def
/EMC { mark /EMC pdfmark } bind def
/cairo_store_point { /cairo_point_y exch def /cairo_point_x exch def } def
/Tj { show currentpoint cairo_store_point } bind def
/TJ {
  {
    dup
    type /stringtype eq
    { show } { -0.001 mul 0 cairo_font_matrix dtransform rmoveto } ifelse
  } forall
  currentpoint cairo_store_point
} bind def
/cairo_selectfont { cairo_font_matrix aload pop pop pop 0 0 6 array astore
    cairo_font exch selectfont cairo_point_x cairo_point_y moveto } bind def
/Tf { pop /cairo_font exch def /cairo_font_matrix where
      { pop cairo_selectfont } if } bind def
/Td { matrix translate cairo_font_matrix matrix concatmatrix dup
      /cairo_font_matrix exch def dup 4 get exch 5 get cairo_store_point
      /cairo_font where { pop cairo_selectfont } if } bind def
/Tm { 2 copy 8 2 roll 6 array astore /cairo_font_matrix exch def
      cairo_store_point /cairo_font where { pop cairo_selectfont } if } bind def
/g { setgray } bind def
/rg { setrgbcolor } bind def
/d1 { setcachedevice } bind def
/cairo_data_source {
  CairoDataIndex CairoData length lt
    { CairoData CairoDataIndex get /CairoDataIndex CairoDataIndex 1 add def }
    { () } ifelse
} def
/cairo_flush_ascii85_file { cairo_ascii85_file status { cairo_ascii85_file flushfile } if } def
/cairo_image { image cairo_flush_ascii85_file } def
/cairo_imagemask { imagemask cairo_flush_ascii85_file } def
%%EndProlog
%%BeginSetup
%%EndSetup
%%Page: 1 1
%%BeginPageSetup
%%PageBoundingBox: 0 0 360 216
%%EndPageSetup
q 42 28 304 179 rectclip
1 0 0 -1 0 216 cm q
0 g
0.2 w
0 J
0 j
[ 0.2 2] 0 d
3.8 M q 1 0 0 1 0 0 cm
42.949 186.75 m 345.148 186.75 l S Q
0.25 w
[] 0.0 d
q 1 0 0 1 0 0 cm
42.949 186.75 m 46.648 186.75 l S Q
q 1 0 0 1 0 0 cm
345.148 186.75 m 341.449 186.75 l S Q
0.2 w
[ 0.2 2] 0 d
q 1 0 0 1 0 0 cm
42.949 169.051 m 345.148 169.051 l S Q
0.25 w
[] 0.0 d
q 1 0 0 1 0 0 cm
42.949 169.051 m 46.648 169.051 l S Q
q 1 0 0 1 0 0 cm
345.148 169.051 m 341.449 169.051 l S Q
0.2 w
[ 0.2 2] 0 d
q 1 0 0 1 0 0 cm
42.949 151.352 m 345.148 151.352 l S Q
0.25 w
[] 0.0 d
q 1 0 0 1 0 0 cm
42.949 151.352 m 46.648 151.352 l S Q
q 1 0 0 1 0 0 cm
345.148 151.352 m 341.449 151.352 l S Q
0.2 w
[ 0.2 2] 0 d
q 1 0 0 1 0 0 cm
42.949 133.699 m 345.148 133.699 l S Q
0.25 w
[] 0.0 d
q 1 0 0 1 0 0 cm
42.949 133.699 m 46.648 133.699 l S Q
q 1 0 0 1 0 0 cm
345.148 133.699 m 341.449 133.699 l S Q
0.2 w
[ 0.2 2] 0 d
q 1 0 0 1 0 0 cm
42.949 116 m 345.148 116 l S Q
0.25 w
[] 0.0 d
q 1 0 0 1 0 0 cm
42.949 116 m 46.648 116 l S Q
q 1 0 0 1 0 0 cm
345.148 116 m 341.449 116 l S Q
0.2 w
[ 0.2 2] 0 d
q 1 0 0 1 0 0 cm
42.949 98.301 m 345.148 98.301 l S Q
0.25 w
[] 0.0 d
q 1 0 0 1 0 0 cm
42.949 98.301 m 46.648 98.301 l S Q
q 1 0 0 1 0 0 cm
345.148 98.301 m 341.449 98.301 l S Q
0.2 w
[ 0.2 2] 0 d
q 1 0 0 1 0 0 cm
42.949 80.602 m 345.148 80.602 l S Q
0.25 w
[] 0.0 d
q 1 0 0 1 0 0 cm
42.949 80.602 m 46.648 80.602 l S Q
q 1 0 0 1 0 0 cm
345.148 80.602 m 341.449 80.602 l S Q
0.2 w
[ 0.2 2] 0 d
q 1 0 0 1 0 0 cm
42.949 62.898 m 345.148 62.898 l S Q
0.25 w
[] 0.0 d
q 1 0 0 1 0 0 cm
42.949 62.898 m 46.648 62.898 l S Q
q 1 0 0 1 0 0 cm
345.148 62.898 m 341.449 62.898 l S Q
0.2 w
[ 0.2 2] 0 d
q 1 0 0 1 0 0 cm
42.949 45.25 m 345.148 45.25 l S Q
0.25 w
[] 0.0 d
q 1 0 0 1 0 0 cm
42.949 45.25 m 46.648 45.25 l S Q
q 1 0 0 1 0 0 cm
345.148 45.25 m 341.449 45.25 l S Q
0.2 w
[ 0.2 2] 0 d
q 1 0 0 1 0 0 cm
42.949 27.551 m 345.148 27.551 l S Q
0.25 w
[] 0.0 d
q 1 0 0 1 0 0 cm
42.949 27.551 m 46.648 27.551 l S Q
q 1 0 0 1 0 0 cm
345.148 27.551 m 341.449 27.551 l S Q
0.2 w
[ 0.2 2] 0 d
q 1 0 0 1 0 0 cm
42.949 9.852 m 345.148 9.852 l S Q
0.25 w
[] 0.0 d
q 1 0 0 1 0 0 cm
42.949 9.852 m 46.648 9.852 l S Q
q 1 0 0 1 0 0 cm
345.148 9.852 m 341.449 9.852 l S Q
0.2 w
[ 0.2 2] 0 d
q 1 0 0 1 0 0 cm
42.949 186.75 m 42.949 9.852 l S Q
0.25 w
[] 0.0 d
q 1 0 0 1 0 0 cm
42.949 186.75 m 42.949 183.051 l S Q
q 1 0 0 1 0 0 cm
42.949 9.852 m 42.949 13.551 l S Q
0.2 w
[ 0.2 2] 0 d
q 1 0 0 1 0 0 cm
73.148 186.75 m 73.148 9.852 l S Q
0.25 w
[] 0.0 d
q 1 0 0 1 0 0 cm
73.148 186.75 m 73.148 183.051 l S Q
q 1 0 0 1 0 0 cm
73.148 9.852 m 73.148 13.551 l S Q
0.2 w
[ 0.2 2] 0 d
q 1 0 0 1 0 0 cm
103.398 186.75 m 103.398 9.852 l S Q
0.25 w
[] 0.0 d
q 1 0 0 1 0 0 cm
103.398 186.75 m 103.398 183.051 l S Q
q 1 0 0 1 0 0 cm
103.398 9.852 m 103.398 13.551 l S Q
0.2 w
[ 0.2 2] 0 d
q 1 0 0 1 0 0 cm
133.602 186.75 m 133.602 9.852 l S Q
0.25 w
[] 0.0 d
q 1 0 0 1 0 0 cm
133.602 186.75 m 133.602 183.051 l S Q
q 1 0 0 1 0 0 cm
133.602 9.852 m 133.602 13.551 l S Q
0.2 w
[ 0.2 2] 0 d
q 1 0 0 1 0 0 cm
163.852 186.75 m 163.852 9.852 l S Q
0.25 w
[] 0.0 d
q 1 0 0 1 0 0 cm
163.852 186.75 m 163.852 183.051 l S Q
q 1 0 0 1 0 0 cm
163.852 9.852 m 163.852 13.551 l S Q
0.2 w
[ 0.2 2] 0 d
q 1 0 0 1 0 0 cm
194.051 186.75 m 194.051 9.852 l S Q
0.25 w
[] 0.0 d
q 1 0 0 1 0 0 cm
194.051 186.75 m 194.051 183.051 l S Q
q 1 0 0 1 0 0 cm
194.051 9.852 m 194.051 13.551 l S Q
0.2 w
[ 0.2 2] 0 d
q 1 0 0 1 0 0 cm
224.25 186.75 m 224.25 9.852 l S Q
0.25 w
[] 0.0 d
q 1 0 0 1 0 0 cm
224.25 186.75 m 224.25 183.051 l S Q
q 1 0 0 1 0 0 cm
224.25 9.852 m 224.25 13.551 l S Q
0.2 w
[ 0.2 2] 0 d
q 1 0 0 1 0 0 cm
254.5 186.75 m 254.5 22.852 l S Q
[ 0.2 2] 0 d
q 1 0 0 1 0 0 cm
254.5 13.551 m 254.5 9.852 l S Q
0.25 w
[] 0.0 d
q 1 0 0 1 0 0 cm
254.5 186.75 m 254.5 183.051 l S Q
q 1 0 0 1 0 0 cm
254.5 9.852 m 254.5 13.551 l S Q
0.2 w
[ 0.2 2] 0 d
q 1 0 0 1 0 0 cm
284.699 186.75 m 284.699 22.852 l S Q
[ 0.2 2] 0 d
q 1 0 0 1 0 0 cm
284.699 13.551 m 284.699 9.852 l S Q
0.25 w
[] 0.0 d
q 1 0 0 1 0 0 cm
284.699 186.75 m 284.699 183.051 l S Q
q 1 0 0 1 0 0 cm
284.699 9.852 m 284.699 13.551 l S Q
0.2 w
[ 0.2 2] 0 d
q 1 0 0 1 0 0 cm
314.949 186.75 m 314.949 22.852 l S Q
[ 0.2 2] 0 d
q 1 0 0 1 0 0 cm
314.949 13.551 m 314.949 9.852 l S Q
0.25 w
[] 0.0 d
q 1 0 0 1 0 0 cm
314.949 186.75 m 314.949 183.051 l S Q
q 1 0 0 1 0 0 cm
314.949 9.852 m 314.949 13.551 l S Q
0.2 w
[ 0.2 2] 0 d
q 1 0 0 1 0 0 cm
345.148 186.75 m 345.148 9.852 l S Q
0.25 w
[] 0.0 d
q 1 0 0 1 0 0 cm
345.148 186.75 m 345.148 183.051 l S Q
q 1 0 0 1 0 0 cm
345.148 9.852 m 345.148 13.551 l S Q
q 1 0 0 1 0 0 cm
42.949 9.852 302.199 176.898 re S Q
0.580392 0 0.827451 rg
q 1 0 0 1 0 0 cm
310.852 18.199 m 334.949 18.199 l S Q
q 1 0 0 1 0 0 cm
103.199 149.949 m 104.449 150.449 l 105.449 151.102 l 106.25 151.852 l 
106.75 152.699 l 106.949 153.551 l 106.852 154.449 l 106.5 155.301 l 105.801
 156.102 l 104.898 156.801 l 103.75 157.398 l 102.449 157.801 l 101.051 
158.102 l 99.551 158.199 l 98.051 158.148 l 96.551 157.898 l 95.25 157.5
 l 94.051 156.949 l 93.051 156.301 l 92.301 155.551 l 91.852 154.699 l 91.648
 153.801 l 91.75 152.949 l 92.148 152.102 l 92.852 151.301 l 93.75 150.602
 l 94.898 150 l 96.199 149.602 l 97.648 149.301 l 99.102 149.199 l 100.648
 149.25 l 102.102 149.449 l 103.449 149.852 l 104.648 150.352 l 105.648 
151 l 106.449 151.801 l 106.949 152.602 l 107.199 153.5 l 107.148 154.352
 l 106.801 155.199 l 106.199 156.051 l 105.301 156.75 l 104.25 157.352 l
 102.949 157.852 l 101.551 158.148 l 100.102 158.352 l 98.551 158.352 l 
97.102 158.148 l 95.699 157.852 l 94.398 157.352 l 93.352 156.75 l 92.449
 156.051 l 91.801 155.25 l 91.449 154.398 l 91.398 153.5 l 91.602 152.602
 l 92.102 151.801 l 92.801 151 l 93.801 150.352 l 95 149.801 l 96.301 149.398
 l 97.75 149.102 l 99.25 149 l 100.75 149.102 l 102.199 149.301 l 103.551
 149.699 l 104.801 150.199 l 105.801 150.898 l 106.602 151.602 l 107.148
 152.449 l 107.449 153.301 l 107.449 154.199 l 107.199 155.051 l 106.648
 155.852 l 105.852 156.648 l 104.852 157.301 l 103.648 157.801 l 102.301
 158.199 l 100.801 158.449 l 99.301 158.551 l 97.801 158.449 l 96.352 158.199
 l 95 157.801 l 93.801 157.301 l 92.801 156.648 l 92 155.898 l 91.398 155.051
 l 91.148 154.199 l 91.102 153.301 l 91.352 152.449 l 91.898 151.602 l 92.648
 150.852 l 93.648 150.199 l 94.801 149.648 l 96.148 149.25 l 97.602 148.949
 l 99.051 148.852 l 100.602 148.898 l 102.051 149.102 l 103.449 149.449 
l 104.699 149.949 l 105.75 150.551 l 106.648 151.25 l 107.301 152.051 l 
107.699 152.898 l 107.801 153.801 l 107.648 154.699 l 107.25 155.551 l 106.602
 156.301 l 105.699 157.051 l 104.602 157.648 l 103.352 158.148 l 101.949
 158.449 l 100.449 158.648 l 98.949 158.699 l 97.449 158.602 l 96.051 158.352
 l 94.699 157.898 l 93.5 157.398 l 92.5 156.75 l 91.699 156 l 91.102 155.148
 l 90.801 154.301 l 90.75 153.398 l 91 152.551 l 91.449 151.699 l 92.148
 150.898 l 93.102 150.25 l 94.25 149.648 l 95.551 149.199 l 96.898 148.852
 l 98.398 148.648 l 99.898 148.648 l 101.398 148.75 l 102.852 149.051 l 
104.148 149.449 l 105.352 150 l 106.352 150.648 l 107.148 151.398 l 107.75
 152.199 l 108.102 153.102 l 108.148 153.949 l 107.949 154.852 l 107.5 155.699
 l 106.852 156.449 l 105.949 157.199 l 104.852 157.801 l 103.602 158.301
 l 102.199 158.648 l 100.75 158.852 l 99.25 158.949 l 97.75 158.852 l 96.301
 158.602 l 94.898 158.25 l 93.648 157.75 l 92.602 157.148 l 91.699 156.449
 l 91 155.648 l 90.602 154.801 l 90.398 153.898 l 90.449 153.051 l 90.75
 152.148 l 91.301 151.352 l 92.102 150.602 l 93.102 149.898 l 94.25 149.352
 l 95.551 148.898 l 96.949 148.602 l 98.449 148.449 l 99.949 148.398 l 101.449
 148.551 l 102.898 148.801 l 104.25 149.199 l 105.449 149.75 l 106.5 150.398
 l 107.352 151.102 l 108 151.898 l 108.398 152.75 l 108.551 153.648 l 108.449
 154.5 l 108.148 155.398 l 107.551 156.199 l 106.75 156.949 l 105.801 157.602
 l 104.602 158.199 l 103.301 158.648 l 101.898 158.949 l 100.449 159.148
 l 98.949 159.148 l 97.449 159.051 l 96 158.801 l 94.602 158.449 l 93.398
 157.949 l 92.301 157.301 l 91.398 156.602 l 90.699 155.852 l 90.199 155
 l 90 154.102 l 90 153.25 l 90.25 152.352 l 90.699 151.5 l 91.398 150.75
 l 92.301 150.051 l 93.398 149.398 l 94.648 148.898 l 96 148.551 l 97.449
 148.25 l 98.949 148.148 l 100.449 148.199 l 101.949 148.352 l 103.352 148.648
 l 104.648 149.051 l 105.852 149.602 l 106.898 150.25 l 107.75 151 l 108.398
 151.801 l 108.801 152.648 l 109 153.5 l 108.949 154.398 l 108.699 155.25
 l 108.148 156.102 l 107.449 156.852 l 106.551 157.551 l 105.449 158.148
 l 104.199 158.699 l 102.852 159.051 l 101.398 159.301 l 99.898 159.449 
l 98.398 159.449 l 96.898 159.301 l 95.449 159 l 94.102 158.602 l 92.898
 158.051 l 91.852 157.449 l 90.949 156.75 l 90.25 155.949 l 89.75 155.102
 l 89.5 154.25 l 89.449 153.352 l 89.648 152.5 l 90.102 151.648 l 90.75 
150.852 l 91.551 150.102 l 92.602 149.449 l 93.75 148.898 l 95.051 148.449
 l 96.449 148.102 l 97.949 147.898 l 99.449 147.852 l 100.949 147.898 l 
102.398 148.102 l 103.801 148.449 l 105.102 148.852 l 106.301 149.398 l 
107.352 150.051 l 108.199 150.801 l 108.852 151.602 l 109.301 152.449 l 
109.5 153.301 l 109.5 154.199 l 109.301 155.051 l 108.852 155.898 l 108.25
 156.699 l 107.398 157.449 l 106.398 158.102 l 105.199 158.648 l 103.898
 159.148 l 102.551 159.449 l 101.051 159.699 l 99.551 159.801 l 98.051 159.75
 l 96.551 159.551 l 95.148 159.301 l 93.801 158.852 l 92.602 158.352 l 91.5
 157.75 l 90.602 157.051 l 89.852 156.25 l 89.301 155.449 l 89 154.551 l
 88.852 153.699 l 88.949 152.801 l 89.301 151.949 l 89.801 151.102 l 90.551
 150.352 l 91.449 149.648 l 92.5 149 l 93.699 148.5 l 95.051 148.051 l 96.449
 147.648 l 97.898 147.551 l 99.449 147.5 l 100.949 147.551 l 102.398 147.75
 l 103.852 148.051 l 105.148 148.449 l 106.398 149 l 107.449 149.602 l 108.449
 150.301 l 109.148 151.051 l 109.699 151.898 l 110.051 152.75 l 110.199 
153.648 l 110.102 154.5 l 109.852 155.398 l 109.352 156.199 l 108.699 157
 l 107.852 157.75 l 106.801 158.398 l 105.648 158.949 l 104.352 159.398 
l 103 159.801 l 101.551 160.051 l 100.051 160.148 l 98.551 160.148 l 97.051
 160.051 l 95.648 159.801 l 94.199 159.449 l 92.898 159 l 91.75 158.449 
l 90.699 157.801 l 89.801 157.102 l 89.102 156.301 l 88.602 155.449 l 88.301
 154.602 l 88.148 153.699 l 88.25 152.852 l 88.551 151.949 l 89.051 151.148
 l 89.699 150.352 l 90.551 149.602 l 91.551 148.949 l 92.699 148.398 l 94
 147.898 l 95.352 147.5 l 96.801 147.25 l 98.25 147.102 l 99.801 147.051
 l 101.301 147.148 l 102.75 147.352 l 104.148 147.648 l 105.5 148.051 l 
106.75 148.5 l 107.852 149.199 l 108.801 149.852 l 109.602 150.602 l 110.199
 151.398 l 110.648 152.25 l 110.898 153.148 l 110.949 154 l 110.801 154.898
 l 110.449 155.75 l 109.949 156.602 l 109.25 157.352 l 108.352 158.102 l
 107.352 158.75 l 106.199 159.301 l 104.898 159.801 l 103.551 160.148 l 
102.102 160.449 l 100.602 160.602 l 99.102 160.648 l 97.602 160.602 l 96.148
 160.398 l 94.699 160.102 l 93.352 159.75 l 92.102 159.25 l 90.949 158.648
 l 89.898 158 l 89.051 157.301 l 88.352 156.5 l 87.852 155.699 l 87.5 154.801
 l 87.301 153.949 l 87.352 153.051 l 87.551 152.199 l 87.949 151.352 l 88.551
 150.5 l 89.301 149.75 l 90.199 149.051 l 91.25 148.398 l 92.449 147.852
 l 93.699 147.398 l 95.102 147 l 96.551 146.75 l 98 146.602 l 99.5 146.551
 l 101.051 146.602 l 102.5 146.75 l 103.949 147 l 105.301 147.398 l 106.602
 147.852 l 107.801 148.398 l 108.852 149 l 109.801 149.699 l 110.551 150.5
 l 111.148 151.301 l 111.602 152.148 l 111.852 153 l 111.898 153.898 l 111.801
 154.75 l 111.551 155.648 l 111.102 156.5 l 110.449 157.301 l 109.648 158.051
 l 108.75 158.75 l 107.648 159.352 l 106.5 159.898 l 105.25 160.352 l 103.801
 160.75 l 102.398 161 l 100.898 161.199 l 99.398 161.25 l 97.898 161.199
 l 96.398 161.051 l 94.949 160.852 l 93.551 160.5 l 92.25 160.051 l 91 159.551
 l 89.898 158.949 l 88.898 158.25 l 88.051 157.551 l 87.352 156.75 l 86.852
 155.949 l 86.449 155.051 l 86.25 154.199 l 86.25 153.301 l 86.352 152.449
 l 86.699 151.551 l 87.148 150.75 l 87.801 149.949 l 88.602 149.199 l 89.551
 148.5 l 90.602 147.852 l 91.801 147.301 l 93.051 146.852 l 94.398 146.449
 l 95.852 146.148 l 97.301 145.949 l 98.801 145.852 l 100.352 145.852 l 
101.852 145.949 l 103.301 146.148 l 104.75 146.449 l 106.102 146.852 l 107.352
 147.301 l 108.551 147.852 l 109.648 148.449 l 110.602 149.148 l 111.398
 149.898 l 112.051 150.699 l 112.602 151.5 l 112.949 152.398 l 113.148 153.25
 l 113.148 154.148 l 113.051 155 l 112.75 155.898 l 112.301 156.699 l 111.699
 157.551 l 110.949 158.301 l 110.051 159 l 109 159.648 l 107.898 160.25 
l 106.648 160.75 l 105.352 161.199 l 103.949 161.551 l 102.5 161.801 l 101
 161.949 l 99.5 162.051 l 98 162 l 96.5 161.898 l 95.051 161.699 l 93.602
 161.398 l 92.25 161 l 90.949 160.551 l 89.801 160 l 88.699 159.398 l 87.699
 158.699 l 86.852 158 l 86.148 157.199 l 85.602 156.398 l 85.148 155.551
 l 84.898 154.648 l 84.75 153.801 l 84.801 152.898 l 85 152 l 85.352 151.148
 l 85.852 150.352 l 86.5 149.551 l 87.25 148.75 l 88.148 148.051 l 89.199
 147.398 l 90.352 146.852 l 91.551 146.301 l 92.852 145.852 l 94.25 145.5
 l 95.648 145.25 l 97.148 145.051 l 98.648 144.949 l 100.148 144.898 l 101.648
 145 l 103.148 145.148 l 104.602 145.398 l 106 145.75 l 107.352 146.148 
l 108.602 146.648 l 109.801 147.199 l 110.852 147.801 l 111.801 148.5 l 
112.648 149.199 l 113.398 150 l 113.949 150.801 l 114.398 151.648 l 114.699
 152.5 l 114.898 153.398 l 114.898 154.301 l 114.75 155.148 l 114.5 156.051
 l 114.051 156.898 l 113.5 157.699 l 112.801 158.5 l 112 159.25 l 111.051
 159.949 l 110.051 160.551 l 108.898 161.148 l 107.648 161.648 l 106.352
 162.102 l 105 162.449 l 103.551 162.75 l 102.102 162.949 l 100.602 163.102
 l 99.102 163.148 l 97.551 163.102 l 96.102 163 l 94.602 162.801 l 93.148
 162.5 l 91.801 162.148 l 90.449 161.699 l 89.199 161.199 l 88.051 160.648
 l 87 160.051 l 86.051 159.352 l 85.148 158.602 l 84.449 157.852 l 83.801
 157.051 l 83.352 156.199 l 83 155.352 l 82.75 154.449 l 82.699 153.602 
l 82.75 152.699 l 82.898 151.852 l 83.25 150.949 l 83.699 150.102 l 84.301
 149.301 l 85 148.5 l 85.801 147.801 l 86.75 147.102 l 87.75 146.449 l 88.898
 145.852 l 90.102 145.301 l 91.352 144.852 l 92.699 144.449 l 94.148 144.102
 l 95.551 143.852 l 97.051 143.699 l 98.551 143.602 l 100.051 143.551 l 
101.551 143.602 l 103.051 143.75 l 104.551 143.949 l 105.949 144.199 l 107.352
 144.551 l 108.699 145 l 109.949 145.449 l 111.148 146 l 112.25 146.602 
l 113.301 147.25 l 114.199 147.949 l 115.051 148.699 l 115.75 149.5 l 116.352
 150.301 l 116.801 151.148 l 117.148 152 l 117.398 152.852 l 117.5 153.75
 l 117.449 154.648 l 117.301 155.5 l 117.051 156.398 l 116.648 157.25 l 
116.148 158.051 l 115.5 158.852 l 114.801 159.648 l 113.949 160.398 l 113
 161.051 l 111.949 161.699 l 110.852 162.301 l 109.648 162.852 l 108.352
 163.301 l 107.051 163.75 l 105.648 164.102 l 104.25 164.398 l 102.75 164.602
 l 101.301 164.75 l 99.75 164.852 l 98.25 164.852 l 96.75 164.801 l 95.25
 164.648 l 93.801 164.449 l 92.352 164.199 l 90.949 163.898 l 89.602 163.5
 l 88.301 163.051 l 87.051 162.5 l 85.898 161.949 l 84.801 161.352 l 83.801
 160.699 l 82.898 159.949 l 82.102 159.25 l 81.352 158.449 l 80.75 157.648
 l 80.25 156.801 l 79.852 155.949 l 79.551 155.102 l 79.398 154.199 l 79.352
 153.301 l 79.398 152.449 l 79.551 151.551 l 79.852 150.699 l 80.25 149.852
 l 80.75 149.051 l 81.352 148.199 l 82.051 147.398 l 82.852 146.648 l 83.75
 145.949 l 84.699 145.25 l 85.75 144.648 l 86.898 144.051 l 88.102 143.551
 l 89.398 143.051 l 90.699 142.602 l 92.102 142.25 l 93.5 141.949 l 94.949
 141.699 l 96.398 141.5 l 97.898 141.398 l 99.398 141.301 l 100.949 141.301
 l 102.449 141.398 l 103.949 141.5 l 105.398 141.699 l 106.852 141.949 l
 108.301 142.25 l 109.648 142.602 l 111 143 l 113.5 144 l 114.648 144.551
 l 115.75 145.199 l 116.75 145.852 l 117.699 146.551 l 118.551 147.25 l 
119.301 148.051 l 120 148.801 l 120.551 149.648 l 121.051 150.5 l 121.449
 151.352 l 121.699 152.199 l 121.898 153.102 l 122 153.949 l 122 154.852
 l 121.898 155.75 l 121.699 156.602 l 121.449 157.449 l 120.949 158.301 
l 120.449 159.148 l 119.898 159.949 l 119.199 160.75 l 118.449 161.5 l 117.602
 162.25 l 116.648 162.949 l 115.648 163.602 l 114.602 164.25 l 113.449 164.801
 l 112.25 165.352 l 111 165.852 l 109.699 166.301 l 108.352 166.699 l 106.949
 167.051 l 105.551 167.352 l 104.102 167.602 l 102.602 167.801 l 101.102
 167.898 l 99.602 168 l 96.602 168 l 95.102 167.898 l 93.602 167.801 l 92.102
 167.602 l 90.648 167.352 l 89.25 167.051 l 87.852 166.699 l 86.5 166.352
 l 85.148 165.898 l 83.898 165.398 l 82.699 164.898 l 81.551 164.352 l 80.398
 163.75 l 79.398 163.102 l 78.398 162.398 l 77.5 161.699 l 76.648 160.949
 l 75.898 160.199 l 75.199 159.398 l 74.602 158.602 l 74.102 157.75 l 73.648
 156.949 l 73.301 156.051 l 73 155.199 l 72.852 154.301 l 72.699 153.449
 l 72.699 152.551 l 72.75 151.648 l 72.898 150.801 l 73.148 149.898 l 73.449
 149.051 l 73.801 148.199 l 74.301 147.352 l 74.852 146.551 l 75.5 145.75
 l 76.199 144.949 l 77.801 143.449 l 78.699 142.75 l 79.699 142.051 l 80.75
 141.398 l 81.801 140.801 l 82.949 140.25 l 84.148 139.699 l 85.398 139.199
 l 86.699 138.699 l 88 138.301 l 89.352 137.898 l 90.75 137.551 l 92.148
 137.25 l 93.602 137 l 95.102 136.801 l 96.551 136.602 l 99.551 136.398 
l 101.102 136.352 l 102.602 136.398 l 104.102 136.449 l 105.602 136.551 
l 107.102 136.648 l 108.551 136.852 l 110.051 137.051 l 111.449 137.352 
l 112.898 137.648 l 114.301 138 l 115.648 138.352 l 118.25 139.25 l 119.5
 139.75 l 121.898 140.852 l 123 141.449 l 124.051 142.051 l 125.102 142.699
 l 126.051 143.398 l 126.949 144.102 l 127.801 144.852 l 128.602 145.602
 l 129.352 146.352 l 130 147.148 l 130.648 147.949 l 131.199 148.801 l 131.648
 149.602 l 132.102 150.449 l 132.449 151.352 l 132.75 152.199 l 132.949 
153.051 l 133.148 153.949 l 133.199 154.852 l 133.25 155.699 l 133.199 156.602
 l 133.102 157.5 l 132.949 158.352 l 132.699 159.25 l 132.398 160.102 l 
132.051 160.949 l 131.648 161.801 l 131.148 162.648 l 130.602 163.5 l 130
 164.301 l 129.352 165.102 l 128.648 165.852 l 127.898 166.648 l 127.051
 167.352 l 126.199 168.102 l 125.301 168.801 l 124.301 169.5 l 123.301 170.148
 l 122.25 170.75 l 121.148 171.398 l 120.051 171.949 l 118.852 172.5 l 117.648
 173.051 l 116.398 173.551 l 115.102 174 l 112.5 174.898 l 111.102 175.25
 l 109.75 175.602 l 108.352 175.949 l 106.898 176.25 l 104 176.75 l 102.5
 176.898 l 101.051 177.102 l 99.551 177.25 l 98.051 177.352 l 96.551 177.398
 l 95.051 177.449 l 93.5 177.449 l 92 177.398 l 90.5 177.352 l 89 177.301
 l 87.5 177.148 l 86 177 l 84.551 176.852 l 83.051 176.648 l 81.602 176.398
 l 80.148 176.148 l 78.75 175.852 l 77.301 175.551 l 75.949 175.199 l 74.551
 174.801 l 73.199 174.398 l 71.898 174 l 70.602 173.551 l 69.301 173.051
 l 68.051 172.551 l 66.852 172.051 l 65.648 171.5 l 64.5 170.949 l 63.352
 170.352 l 62.25 169.75 l 61.199 169.102 l 60.148 168.5 l 59.148 167.801
 l 58.199 167.148 l 57.25 166.449 l 56.352 165.75 l 54.648 164.25 l 53.148
 162.75 l 51.75 161.148 l 51.148 160.352 l 50.551 159.551 l 50 158.699 l
 49.449 157.898 l 49 157.051 l 48.551 156.199 l 48.148 155.352 l 47.801 
154.5 l 47.5 153.602 l 47.199 152.75 l 46.949 151.898 l 46.75 151 l 46.602
 150.102 l 46.5 149.25 l 46.398 148.352 l 46.352 147.449 l 46.352 146.602
 l 46.398 145.699 l 46.449 144.801 l 46.551 143.949 l 46.699 143.051 l 46.898
 142.199 l 47.102 141.301 l 47.352 140.449 l 47.648 139.551 l 47.949 138.699
 l 48.301 137.852 l 48.699 137 l 49.102 136.148 l 49.602 135.301 l 50.051
 134.449 l 50.602 133.602 l 51.148 132.801 l 51.699 132 l 52.301 131.148
 l 52.949 130.352 l 53.602 129.602 l 54.301 128.801 l 55.051 128 l 56.551
 126.5 l 57.398 125.75 l 58.199 125 l 59.051 124.25 l 59.949 123.551 l 60.852
 122.852 l 61.75 122.148 l 62.699 121.449 l 63.699 120.801 l 64.648 120.102
 l 65.699 119.449 l 66.699 118.801 l 67.75 118.148 l 68.852 117.551 l 69.949
 116.949 l 71.051 116.352 l 72.148 115.75 l 73.301 115.148 l 74.449 114.602
 l 75.648 114.051 l 76.801 113.5 l 78.051 112.949 l 79.25 112.449 l 84.25
 110.449 l 86.852 109.551 l 88.148 109.102 l 89.449 108.648 l 90.801 108.25
 l 92.148 107.852 l 93.5 107.449 l 94.852 107.051 l 96.199 106.648 l 97.551
 106.301 l 98.949 105.949 l 100.352 105.602 l 101.75 105.25 l 103.148 104.949
 l 104.551 104.602 l 106 104.301 l 107.398 104 l 108.852 103.699 l 110.25
 103.449 l 111.699 103.148 l 113.148 102.898 l 114.602 102.648 l 116.051
 102.398 l 117.5 102.199 l 118.949 101.949 l 120.449 101.75 l 121.898 101.551
 l 123.398 101.352 l 124.852 101.148 l 126.352 101 l 127.801 100.801 l 129.301
 100.648 l 130.801 100.5 l 132.25 100.352 l 133.75 100.199 l 135.25 100.051
 l 136.75 99.898 l 138.25 99.801 l 139.75 99.699 l 141.25 99.551 l 142.75
 99.449 l 144.25 99.352 l 145.75 99.25 l 147.25 99.199 l 148.75 99.102 l
 150.25 99 l 153.25 98.898 l 154.801 98.801 l 159.301 98.648 l 160.801 98.602
 l 162.352 98.551 l 163.852 98.551 l 166.852 98.449 l 168.352 98.449 l 169.898
 98.398 l 172.898 98.398 l 174.398 98.352 l 178.949 98.352 l 180.449 98.301
 l 207.648 98.301 l 209.148 98.25 l 213.699 98.25 l 215.199 98.199 l 218.199
 98.199 l 219.75 98.148 l 221.25 98.148 l 222.75 98.102 l 224.25 98.051 
l 225.75 98.051 l 227.301 98 l 230.301 97.898 l 231.801 97.852 l 233.301
 97.801 l 234.852 97.699 l 236.352 97.648 l 237.852 97.602 l 240.852 97.398
 l 242.352 97.352 l 245.352 97.148 l 246.852 97.051 l 248.352 96.898 l 249.852
 96.801 l 251.352 96.699 l 252.852 96.551 l 254.352 96.398 l 255.852 96.25
 l 257.301 96.102 l 258.801 95.949 l 260.301 95.801 l 261.75 95.602 l 263.25
 95.449 l 264.699 95.25 l 266.199 95.051 l 267.648 94.852 l 269.148 94.648
 l 270.602 94.398 l 272.051 94.199 l 276.398 93.449 l 277.852 93.148 l 279.25
 92.898 l 280.699 92.602 l 282.102 92.301 l 283.551 92 l 284.949 91.648 
l 286.352 91.352 l 289.148 90.648 l 290.551 90.301 l 291.898 89.949 l 293.25
 89.551 l 294.602 89.148 l 295.949 88.75 l 297.301 88.352 l 298.648 87.949
 l 302.551 86.602 l 303.852 86.148 l 308.852 84.148 l 310.051 83.648 l 311.301
 83.102 l 312.449 82.551 l 313.648 82 l 314.801 81.449 l 315.949 80.852 
l 317.051 80.25 l 318.148 79.648 l 319.25 79.051 l 320.352 78.449 l 321.398
 77.801 l 322.398 77.148 l 323.449 76.5 l 324.398 75.801 l 325.398 75.148
 l 326.352 74.449 l 328.148 73.051 l 329.051 72.352 l 329.898 71.602 l 330.699
 70.852 l 331.551 70.102 l 333.051 68.602 l 333.801 67.801 l 334.5 67 l 
335.148 66.25 l 335.801 65.449 l 336.398 64.602 l 337.5 63 l 338.051 62.148
 l 338.5 61.301 l 339 60.449 l 339.398 59.602 l 339.801 58.75 l 340.148 
57.898 l 340.449 57.051 l 340.75 56.148 l 341 55.301 l 341.199 54.398 l 
341.398 53.551 l 341.551 52.648 l 341.648 51.801 l 341.699 50.898 l 341.75
 50 l 341.75 49.148 l 341.699 48.25 l 341.602 47.352 l 341.5 46.5 l 341.352
 45.602 l 341.148 44.699 l 340.898 43.852 l 340.602 43 l 340.301 42.102 
l 339.949 41.25 l 339.551 40.398 l 339.102 39.551 l 338.648 38.699 l 338.102
 37.898 l 337.551 37.051 l 336.949 36.25 l 336.352 35.449 l 335.648 34.648
 l 334.949 33.852 l 333.449 32.352 l 332.602 31.602 l 331.75 30.852 l 330.852
 30.148 l 329.898 29.449 l 328.949 28.801 l 327.949 28.102 l 326.898 27.5
 l 325.852 26.852 l 324.75 26.25 l 323.602 25.648 l 322.449 25.102 l 321.25
 24.551 l 320.051 24.051 l 318.801 23.551 l 317.5 23.051 l 316.199 22.602
 l 314.898 22.199 l 313.551 21.801 l 312.148 21.398 l 310.801 21.051 l 309.352
 20.75 l 307.949 20.449 l 305.051 19.949 l 303.551 19.75 l 302.102 19.602
 l 300.602 19.449 l 299.102 19.301 l 294.602 19.148 l 293.051 19.148 l 290.051
 19.25 l 288.551 19.352 l 287.051 19.5 l 285.602 19.699 l 284.102 19.852
 l 282.648 20.102 l 281.199 20.352 l 279.75 20.648 l 278.352 21 l 277 21.352
 l 275.602 21.699 l 274.301 22.148 l 273 22.602 l 271.699 23.051 l 270.449
 23.551 l 269.25 24.102 l 268.051 24.648 l 266.949 25.199 l 265.852 25.852
 l 264.801 26.449 l 263.801 27.102 l 262.801 27.801 l 261.898 28.5 l 261.051
 29.25 l 260.199 29.949 l 259.449 30.75 l 258.75 31.5 l 258.102 32.301 l
 257.5 33.102 l 256.949 33.949 l 256.449 34.801 l 256.051 35.648 l 255.699
 36.5 l 255.398 37.352 l 255.148 38.25 l 255 39.102 l 254.898 40 l 254.852
 40.898 l 254.898 41.75 l 254.949 42.648 l 255.148 43.551 l 255.352 44.398
 l 255.648 45.25 l 256 46.148 l 256.449 47 l 256.898 47.801 l 257.449 48.648
 l 258.102 49.449 l 258.75 50.25 l 259.5 51 l 260.301 51.75 l 261.148 52.5
 l 262.051 53.199 l 263 53.898 l 264.051 54.551 l 265.102 55.148 l 266.199
 55.75 l 267.398 56.301 l 268.602 56.852 l 269.852 57.352 l 271.148 57.801
 l 272.449 58.25 l 273.801 58.602 l 275.199 58.949 l 276.648 59.25 l 278.051
 59.551 l 279.551 59.75 l 281 59.949 l 282.5 60.051 l 284 60.148 l 287 60.25
 l 288.551 60.199 l 290.051 60.102 l 291.551 60 l 293 59.801 l 294.5 59.602
 l 295.949 59.352 l 297.352 59.051 l 298.75 58.699 l 300.102 58.301 l 301.398
 57.898 l 302.699 57.398 l 303.949 56.898 l 305.148 56.352 l 306.301 55.801
 l 307.352 55.199 l 308.398 54.551 l 309.398 53.852 l 310.301 53.148 l 311.102
 52.398 l 311.898 51.648 l 312.602 50.852 l 313.25 50.051 l 313.801 49.25
 l 314.301 48.398 l 314.648 47.551 l 314.949 46.699 l 315.199 45.801 l 315.352
 44.949 l 315.398 44.051 l 315.398 43.148 l 315.25 42.301 l 315.102 41.398
 l 314.801 40.551 l 314.449 39.648 l 314 38.852 l 313.5 38 l 312.898 37.199
 l 312.199 36.398 l 311.449 35.648 l 310.602 34.898 l 309.699 34.199 l 308.699
 33.5 l 307.699 32.852 l 306.551 32.25 l 305.398 31.699 l 304.199 31.199
 l 302.949 30.699 l 301.602 30.25 l 300.25 29.898 l 298.852 29.551 l 297.449
 29.25 l 296 29 l 294.5 28.801 l 293 28.699 l 291.5 28.602 l 288.5 28.602
 l 287 28.699 l 285.5 28.801 l 284 29 l 282.551 29.25 l 281.148 29.551 l
 279.75 29.898 l 278.398 30.301 l 277.102 30.75 l 275.852 31.25 l 274.648
 31.801 l 273.5 32.352 l 272.449 33 l 271.449 33.648 l 270.5 34.352 l 269.648
 35.102 l 268.898 35.852 l 268.199 36.648 l 267.648 37.449 l 267.148 38.301
 l 266.648 39.148 l 266.398 40 l 266.199 40.852 l 266.102 41.75 l 266.102
 42.648 l 266.199 43.5 l 266.398 44.398 l 266.648 45.25 l 267.051 46.102
 l 267.551 46.949 l 268.102 47.801 l 268.801 48.551 l 269.551 49.352 l 270.398
 50.051 l 271.352 50.75 l 272.352 51.398 l 273.449 52.051 l 274.602 52.602
 l 277.102 53.602 l 278.449 54 l 279.801 54.352 l 281.25 54.648 l 282.699
 54.898 l 284.148 55.102 l 285.648 55.199 l 287.148 55.301 l 288.699 55.301
 l 290.199 55.199 l 291.699 55.102 l 293.148 54.898 l 294.602 54.648 l 296
 54.352 l 297.398 54 l 298.699 53.551 l 300 53.051 l 301.199 52.551 l 302.352
 51.949 l 303.398 51.352 l 304.352 50.648 l 305.25 49.949 l 306.051 49.199
 l 306.75 48.398 l 307.352 47.551 l 307.852 46.75 l 308.25 45.898 l 308.551
 45.051 l 308.699 44.148 l 308.75 43.301 l 308.699 42.398 l 308.551 41.5
 l 308.25 40.648 l 307.852 39.801 l 307.352 38.949 l 306.75 38.148 l 306
 37.352 l 305.199 36.648 l 304.301 35.898 l 303.301 35.25 l 302.199 34.648
 l 301.051 34.102 l 299.801 33.551 l 298.5 33.102 l 297.148 32.699 l 295.75
 32.398 l 294.301 32.148 l 292.852 31.949 l 291.352 31.801 l 289.852 31.75
 l 288.352 31.75 l 286.801 31.852 l 285.352 32 l 283.852 32.199 l 282.449
 32.5 l 281.051 32.852 l 278.449 33.75 l 277.25 34.301 l 276.148 34.898 
l 275.102 35.551 l 274.148 36.199 l 273.301 36.949 l 272.602 37.75 l 271.949
 38.551 l 271.449 39.352 l 271.051 40.199 l 270.801 41.102 l 270.648 41.949
 l 270.602 42.852 l 270.699 43.75 l 270.949 44.602 l 271.301 45.449 l 271.75
 46.301 l 272.352 47.102 l 273.051 47.898 l 273.898 48.648 l 274.801 49.352
 l 275.852 50 l 276.949 50.602 l 278.148 51.148 l 279.398 51.602 l 280.75
 52.051 l 282.148 52.398 l 283.551 52.648 l 285.051 52.852 l 286.551 53 
l 288.051 53.051 l 289.551 53 l 291.051 52.898 l 292.551 52.75 l 293.949
 52.5 l 295.398 52.148 l 296.75 51.75 l 298 51.301 l 299.199 50.75 l 300.352
 50.148 l 301.352 49.5 l 302.301 48.801 l 303.102 48.102 l 303.801 47.301
 l 304.398 46.5 l 304.852 45.648 l 305.199 44.75 l 305.352 43.898 l 305.398
 43 l 305.352 42.148 l 305.102 41.25 l 304.75 40.398 l 304.301 39.551 l 
303.648 38.75 l 302.949 38 l 302.051 37.25 l 301.102 36.551 l 300.051 35.949
 l 298.898 35.398 l 297.648 34.898 l 296.301 34.449 l 294.949 34.102 l 293.5
 33.801 l 292 33.602 l 290.551 33.5 l 289 33.449 l 287.5 33.5 l 286 33.648
 l 284.551 33.852 l 283.102 34.148 l 281.75 34.5 l 280.449 34.949 l 279.199
 35.449 l 278.051 36.051 l 277.051 36.648 l 276.102 37.352 l 275.301 38.102
 l 274.602 38.898 l 274.051 39.699 l 273.602 40.551 l 273.352 41.449 l 273.199
 42.301 l 273.199 43.199 l 273.398 44.102 l 273.699 44.949 l 274.148 45.801
 l 274.699 46.602 l 275.449 47.398 l 276.301 48.102 l 277.25 48.801 l 278.301
 49.398 l 279.5 49.949 l 280.75 50.449 l 282.102 50.852 l 283.5 51.199 l
 284.949 51.449 l 286.449 51.602 l 287.949 51.699 l 289.449 51.648 l 290.949
 51.551 l 292.449 51.352 l 293.852 51.102 l 295.25 50.75 l 296.551 50.301
 l 297.75 49.75 l 298.898 49.199 l 299.949 48.551 l 300.852 47.852 l 301.602
 47.051 l 302.25 46.25 l 302.75 45.449 l 303.102 44.602 l 303.301 43.699
 l 303.352 42.801 l 303.199 41.949 l 302.949 41.051 l 302.5 40.199 l 301.949
 39.398 l 301.25 38.602 l 300.398 37.898 l 299.398 37.199 l 298.301 36.602
 l 297.148 36.051 l 295.852 35.602 l 294.5 35.199 l 293.051 34.898 l 291.602
 34.699 l 290.102 34.602 l 288.602 34.551 l 287.102 34.648 l 285.602 34.801
 l 284.148 35.051 l 282.75 35.398 l 281.449 35.852 l 280.199 36.352 l 279.102
 36.949 l 278.051 37.602 l 277.148 38.301 l 276.398 39.051 l 275.801 39.898
 l 275.352 40.699 l 275.051 41.602 l 274.949 42.449 l 274.949 43.352 l 275.148
 44.199 l 275.5 45.102 l 276.051 45.898 l 276.699 46.699 l 277.5 47.449 
l 278.449 48.148 l 279.551 48.75 l 280.75 49.301 l 282 49.75 l 283.352 50.148
 l 284.801 50.449 l 286.25 50.648 l 287.75 50.75 l 289.301 50.75 l 290.801
 50.648 l 292.25 50.449 l 293.699 50.148 l 295.051 49.75 l 296.301 49.301
 l 297.5 48.75 l 298.551 48.102 l 299.5 47.398 l 300.301 46.648 l 300.949
 45.852 l 301.398 45.051 l 301.75 44.148 l 301.852 43.301 l 301.852 42.398
 l 301.648 41.551 l 301.25 40.648 l 300.75 39.852 l 300.051 39.051 l 299.199
 38.352 l 298.199 37.648 l 297.102 37.051 l 295.852 36.551 l 294.551 36.102
 l 293.148 35.75 l 291.699 35.551 l 290.199 35.398 l 288.699 35.352 l 287.199
 35.398 l 285.699 35.602 l 284.301 35.852 l 282.852 36.25 l 281.602 36.699
 l 280.449 37.25 l 279.352 37.852 l 278.449 38.551 l 277.648 39.301 l 277
 40.102 l 276.551 40.949 l 276.301 41.852 l 276.199 42.699 l 276.25 43.602
 l 276.5 44.449 l 276.949 45.301 l 277.551 46.102 l 278.301 46.898 l 279.25
 47.602 l 280.301 48.199 l 281.5 48.75 l 282.801 49.199 l 284.148 49.602
 l 285.602 49.852 l 287.051 50 l 288.602 50.051 l 290.102 50 l 291.551 49.852
 l 293 49.602 l 294.398 49.199 l 295.648 48.75 l 296.852 48.199 l 297.898
 47.551 l 298.801 46.852 l 299.551 46.102 l 300.148 45.25 l 300.551 44.398
 l 300.75 43.551 l 300.801 42.648 l 300.602 41.801 l 300.25 40.898 l 299.75
 40.102 l 299.051 39.301 l 298.199 38.602 l 297.148 37.949 l 296 37.352 
l 294.75 36.852 l 293.398 36.5 l 291.949 36.199 l 290.5 36 l 289 35.949 
l 287.5 36 l 286 36.148 l 284.551 36.449 l 283.199 36.801 l 281.898 37.301
 l 280.75 37.852 l 279.75 38.5 l 278.852 39.25 l 278.148 40 l 277.648 40.852
 l 277.301 41.699 l 277.148 42.602 l 277.199 43.449 l 277.449 44.352 l 277.898
 45.199 l 278.5 46 l 279.301 46.75 l 280.25 47.398 l 281.352 48.102 l 282.602
 48.551 l 283.949 48.949 l 285.352 49.25 l 286.801 49.449 l 288.301 49.551
 l 289.852 49.5 l 291.301 49.352 l 292.75 49.102 l 294.102 48.699 l 295.398
 48.199 l 296.551 47.648 l 297.551 47 l 298.398 46.25 l 299.051 45.449 l
 299.551 44.648 l 299.852 43.75 l 299.949 42.898 l 299.801 42 l 299.5 41.148
 l 299 40.301 l 298.301 39.5 l 297.398 38.801 l 296.352 38.148 l 295.199
 37.602 l 293.898 37.148 l 292.449 36.801 l 291.051 36.551 l 289.551 36.449
 l 288.051 36.449 l 286.551 36.551 l 285.102 36.801 l 283.75 37.199 l 282.449
 37.648 l 281.301 38.199 l 280.25 38.852 l 279.398 39.602 l 278.75 40.398
 l 278.25 41.199 l 278 42.102 l 277.898 42.949 l 278.051 43.852 l 278.398
 44.699 l 278.949 45.551 l 279.648 46.301 l 280.648 47 l 281.699 47.602 
l 282.949 48.148 l 284.25 48.551 l 285.699 48.852 l 287.148 49.051 l 288.648
 49.102 l 290.199 49.051 l 291.648 48.949 l 293.051 48.551 l 294.398 48.102
 l 295.602 47.602 l 296.648 46.949 l 297.551 46.25 l 298.301 45.5 l 298.801
 44.648 l 299.148 43.801 l 299.25 42.898 l 299.102 42.051 l 298.801 41.148
 l 298.25 40.352 l 297.5 39.551 l 296.602 38.852 l 295.5 38.25 l 294.301
 37.75 l 292.949 37.301 l 291.551 37.051 l 290.051 36.852 l 288.551 36.801
 l 287.051 36.898 l 285.551 37.148 l 284.199 37.449 l 282.898 37.949 l 281.699
 38.5 l 280.699 39.148 l 279.852 39.898 l 279.25 40.699 l 278.801 41.551
 l 278.602 42.398 l 278.602 43.301 l 278.801 44.148 l 279.25 45 l 279.898
 45.801 l 280.75 46.551 l 281.801 47.199 l 283 47.75 l 284.301 48.148 l 
285.699 48.5 l 287.148 48.699 l 288.648 48.75 l 290.148 48.699 l 291.648
 48.5 l 293.051 48.148 l 294.352 47.699 l 295.5 47.148 l 296.551 46.5 l 
297.352 45.75 l 298 44.949 l 298.449 44.102 l 298.648 43.25 l 298.602 42.352
 l 298.352 41.5 l 297.852 40.648 l 297.148 39.852 l 296.25 39.148 l 295.199
 38.551 l 294 38 l 292.648 37.602 l 291.199 37.301 l 289.699 37.148 l 288.199
 37.148 l 286.699 37.301 l 285.25 37.551 l 283.898 37.898 l 282.648 38.449
 l 281.551 39.051 l 280.648 39.75 l 279.949 40.5 l 279.398 41.352 l 279.148
 42.199 l 279.102 43.102 l 279.301 43.949 l 279.699 44.801 l 280.352 45.602
 l 281.199 46.352 l 282.25 47 l 283.449 47.551 l 284.75 47.949 l 286.148
 48.25 l 287.648 48.398 l 289.148 48.449 l 290.648 48.352 l 292.102 48.051
 l 293.449 47.699 l 294.699 47.199 l 295.801 46.551 l 296.699 45.852 l 297.398
 45.102 l 297.852 44.25 l 298.102 43.352 l 298.102 42.5 l 297.898 41.602
 l 297.398 40.75 l 296.699 40 l 295.801 39.301 l 294.699 38.648 l 293.5 
38.148 l 292.102 37.801 l 290.648 37.551 l 289.148 37.449 l 287.648 37.449
 l 286.199 37.648 l 284.801 37.949 l 283.5 38.398 l 282.301 39 l 281.352
 39.648 l 280.551 40.398 l 279.949 41.199 l 279.648 42.102 l 279.551 42.949
 l 279.699 43.852 l 280.102 44.699 l 280.75 45.5 l 281.602 46.199 l 282.648
 46.852 l 283.852 47.398 l 285.199 47.801 l 286.648 48.051 l 288.148 48.199
 l 289.648 48.148 l 291.148 48 l 292.551 47.699 l 293.852 47.25 l 295 46.699
 l 296 46 l 296.801 45.25 l 297.352 44.449 l 297.648 43.551 l 297.699 42.699
 l 297.5 41.801 l 297.102 40.949 l 296.398 40.148 l 295.5 39.449 l 294.449
 38.852 l 293.199 38.352 l 291.801 38 l 290.352 37.75 l 288.852 37.648 l
 287.352 37.75 l 285.898 37.949 l 284.5 38.301 l 283.25 38.801 l 282.148
 39.398 l 281.25 40.148 l 280.602 40.898 l 280.148 41.75 l 279.949 42.648
 l 280 43.5 l 280.352 44.398 l 280.949 45.199 l 281.75 45.949 l 282.75 46.602
 l 283.949 47.148 l 285.25 47.551 l 286.699 47.852 l 288.199 47.949 l 289.699
 47.949 l 291.199 47.75 l 292.551 47.398 l 293.852 46.949 l 295 46.352 l
 295.949 45.699 l 296.648 44.898 l 297.102 44.051 l 297.352 43.199 l 297.301
 42.301 l 297 41.449 l 296.398 40.602 l 295.602 39.852 l 294.602 39.199 
l 293.398 38.699 l 292.051 38.25 l 290.648 38 l 289.148 37.898 l 287.648
 37.949 l 286.148 38.148 l 284.75 38.449 l 283.5 38.949 l 282.398 39.551
 l 281.5 40.301 l 280.852 41.051 l 280.449 41.898 l 280.301 42.801 l 280.398
 43.699 l 280.801 44.551 l 281.449 45.352 l 282.352 46.051 l 283.398 46.648
 l 284.648 47.148 l 286.051 47.5 l 287.5 47.699 l 289.051 47.75 l 290.5 
47.648 l 291.949 47.352 l 293.301 46.949 l 294.449 46.398 l 295.449 45.75
 l 296.199 45 l 296.75 44.148 l 297 43.301 l 296.949 42.398 l 296.699 41.551
 l 296.102 40.699 l 295.301 39.949 l 294.301 39.301 l 293.102 38.801 l 291.75
 38.398 l 290.301 38.148 l 288.801 38.051 l 287.301 38.148 l 285.801 38.398
 l 284.449 38.801 l 283.25 39.301 l 282.25 39.949 l 281.449 40.75 l 280.898
 41.551 l 280.648 42.398 l 280.648 43.301 l 280.949 44.148 l 281.5 45 l 
282.301 45.699 l 283.301 46.398 l 284.551 46.898 l 285.898 47.301 l 287.352
 47.5 l 288.852 47.602 l 290.352 47.5 l 291.801 47.199 l 293.102 46.801 
l 294.301 46.25 l 295.301 45.602 l 296 44.801 l 296.5 44 l 296.699 43.102
 l 296.648 42.199 l 296.301 41.352 l 295.648 40.551 l 294.75 39.852 l 293.699
 39.25 l 292.398 38.75 l 291 38.449 l 289.551 38.25 l 288 38.25 l 286.551
 38.449 l 285.148 38.75 l 283.852 39.25 l 282.801 39.852 l 281.898 40.551
 l 281.301 41.398 l 280.949 42.25 l 280.898 43.102 l 281.148 44 l 281.648
 44.801 l 282.449 45.602 l 283.449 46.25 l 284.648 46.75 l 286 47.148 l 
287.449 47.352 l 289 47.398 l 290.449 47.301 l 291.898 47 l 293.199 46.602
 l 294.352 46 l 295.25 45.301 l 295.949 44.5 l 296.352 43.648 l 296.449 
42.801 l 296.25 41.898 l 295.801 41.051 l 295.051 40.301 l 294.051 39.648
 l 292.852 39.102 l 291.551 38.699 l 290.051 38.449 l 288.551 38.398 l 287.051
 38.5 l 285.648 38.801 l 284.352 39.199 l 283.199 39.801 l 282.301 40.5 
l 281.602 41.301 l 281.25 42.148 l 281.148 43.051 l 281.352 43.898 l 281.852
 44.75 l 282.648 45.5 l 283.648 46.148 l 284.898 46.648 l S Q
0 g
q 1 0 0 1 0 0 cm
42.949 9.852 302.199 176.898 re S Q
Q Q
showpage
%%Trailer
end
%%EOF
